{
  "count": 137,
  "next": "http://aecworks-api-staging.herokuapp.com/community/companies/?limit=10&offset=10",
  "previous": null,
  "results": [
    {
      "slug": "3d-repo",
      "createdBy": {
        "slug": "testuser",
        "name": "Joseph Banks",
        "avatarUrl": ""
      },
      "threadId": 11,
      "createdAt": "2020-09-14T05:23:32.205711Z",
      "clapCount": 0,
      "threadSize": 2,
      "lastRevisionId": null,
      "articles": [],
      "name": "3D Repo",
      "description": "Cloud-Based BIM",
      "website": "https://3drepo.com",
      "location": "London, UK",
      "twitterHandle": null,
      "crunchbaseId": "3d-repo",
      "logoUrl": "https://aecworks-bucket-staging.s3.amazonaws.com/images/75ab7e9f91304054987a2f25917adc80.png",
      "coverUrl": "",
      "hashtags": ["webapp", "issuetracking", "changemanagement"]
    },
    {
      "slug": "abodu",
      "createdBy": {
        "slug": "testuser",
        "name": "Joseph Banks",
        "avatarUrl": ""
      },
      "threadId": 12,
      "createdAt": "2020-09-14T05:23:34.319236Z",
      "clapCount": 0,
      "threadSize": 0,
      "lastRevisionId": null,
      "articles": [],
      "name": "Abodu",
      "description": "No-compromise backyard homes",
      "website": "https://abodu.com/",
      "location": "Unknown",
      "twitterHandle": null,
      "crunchbaseId": null,
      "logoUrl": "https://aecworks-bucket-staging.s3.amazonaws.com/images/67d210c951034cb5b46f6e78b49ca2bf.png",
      "coverUrl": "",
      "hashtags": ["prefabrication", "housing"]
    },
    {
      "slug": "acculis",
      "createdBy": {
        "slug": "testuser",
        "name": "Joseph Banks",
        "avatarUrl": ""
      },
      "threadId": 13,
      "createdAt": "2020-09-14T05:23:34.814476Z",
      "clapCount": 0,
      "threadSize": 0,
      "lastRevisionId": null,
      "articles": [],
      "name": "Acculis",
      "description": "BIM coordination platform",
      "website": "https://www.acculistech.com/",
      "location": "Somewhere",
      "twitterHandle": null,
      "crunchbaseId": "acculis#section-investors",
      "logoUrl": "https://aecworks-bucket-staging.s3.amazonaws.com/images/c8e57e004eee4dbc8d60378917f89600.png",
      "coverUrl": "",
      "hashtags": [
        "webapp",
        "issuetracking",
        "constructionmanagement",
        "projectmanagement",
        "documentation",
        "modelviewer",
        "assetmanagement",
        "interoperability"
      ]
    },
    {
      "slug": "alice-technologies",
      "createdBy": {
        "slug": "testuser",
        "name": "Joseph Banks",
        "avatarUrl": ""
      },
      "threadId": 14,
      "createdAt": "2020-09-14T05:23:35.275059Z",
      "clapCount": 0,
      "threadSize": 0,
      "lastRevisionId": null,
      "articles": [],
      "name": "ALICE Technologies",
      "description": "ALICE leverages AI to speed up the planning process, reduce project schedules, and resolve schedule delays.",
      "website": "https://alicetechnologies.com/",
      "location": "Menlo Park, CA, USA",
      "twitterHandle": null,
      "crunchbaseId": "alice-technologies",
      "logoUrl": "https://aecworks-bucket-staging.s3.amazonaws.com/images/716a701d596d4251b8c0a9b3fd3f4569.png",
      "coverUrl": "",
      "hashtags": ["webapp", "claimsAI"]
    },
    {
      "slug": "archilogic",
      "createdBy": {
        "slug": "testuser",
        "name": "Joseph Banks",
        "avatarUrl": ""
      },
      "threadId": 15,
      "createdAt": "2020-09-14T05:23:35.690503Z",
      "clapCount": 0,
      "threadSize": 0,
      "lastRevisionId": null,
      "articles": [],
      "name": "Archilogic",
      "description": "Archilogic's platform empowers users to easily create, edit, and share 3D content for interiors.",
      "website": "https://archilogic.com/",
      "location": "Zurich, Switzerland",
      "twitterHandle": null,
      "crunchbaseId": "archilogic",
      "logoUrl": "https://aecworks-bucket-staging.s3.amazonaws.com/images/ffb4d78b627948e2a8e9ee7b1b76e7e4.png",
      "coverUrl": "",
      "hashtags": ["modelviewer"]
    },
    {
      "slug": "archilyse",
      "createdBy": {
        "slug": "testuser",
        "name": "Joseph Banks",
        "avatarUrl": ""
      },
      "threadId": 16,
      "createdAt": "2020-09-14T05:23:36.914063Z",
      "clapCount": 0,
      "threadSize": 0,
      "lastRevisionId": null,
      "articles": [],
      "name": "Archilyse",
      "description": "Holistic numeric architecture analysis as an easy to use API solution",
      "website": "https://www.archilyse.com/",
      "location": "Zurich, Switzerland",
      "twitterHandle": null,
      "crunchbaseId": "archilyse",
      "logoUrl": "https://aecworks-bucket-staging.s3.amazonaws.com/images/cc5bf06d655f4a5db278831752d282a1.png",
      "coverUrl": "",
      "hashtags": ["analysis"]
    },
    {
      "slug": "archistar",
      "createdBy": {
        "slug": "testuser",
        "name": "Joseph Banks",
        "avatarUrl": ""
      },
      "threadId": 17,
      "createdAt": "2020-09-14T05:23:38.167451Z",
      "clapCount": 0,
      "threadSize": 0,
      "lastRevisionId": null,
      "articles": [],
      "name": "Archistar",
      "description": "Archistar.ai empowers property developers, governments and agents with next-generation intelligence in real-time.",
      "website": "https://www.archistar.ai",
      "location": "Sydney, Australia",
      "twitterHandle": null,
      "crunchbaseId": null,
      "logoUrl": "https://aecworks-bucket-staging.s3.amazonaws.com/images/bdc463ff1c4c4d17b0f3b664f129d486.png",
      "coverUrl": "",
      "hashtags": ["spatialdata", "webapp", "generative"]
    },
    {
      "slug": "arkio",
      "createdBy": {
        "slug": "testuser",
        "name": "Joseph Banks",
        "avatarUrl": ""
      },
      "threadId": 18,
      "createdAt": "2020-09-14T05:23:38.870381Z",
      "clapCount": 0,
      "threadSize": 0,
      "lastRevisionId": null,
      "articles": [],
      "name": "Arkio",
      "description": "Collaborative VR Spatial Design",
      "website": "https://arkio.is/",
      "location": "Iceland",
      "twitterHandle": null,
      "crunchbaseId": "arkio#section-overview",
      "logoUrl": "https://aecworks-bucket-staging.s3.amazonaws.com/images/b9e5c5b0c93c49efb8e2f507a6e316a7.png",
      "coverUrl": "",
      "hashtags": ["vr", "modelviewer", "spaceplanning"]
    },
    {
      "slug": "atmos",
      "createdBy": {
        "slug": "testuser",
        "name": "Joseph Banks",
        "avatarUrl": ""
      },
      "threadId": 19,
      "createdAt": "2020-09-14T05:23:39.410641Z",
      "clapCount": 0,
      "threadSize": 0,
      "lastRevisionId": null,
      "articles": [],
      "name": "Atmos",
      "description": "How It Works Your A-Team More The entire homebuilding process all in one place.",
      "website": "https://buildatmos.com/",
      "location": "-",
      "twitterHandle": null,
      "crunchbaseId": null,
      "logoUrl": null,
      "coverUrl": null,
      "hashtags": ["housing"]
    },
    {
      "slug": "avail",
      "createdBy": {
        "slug": "testuser",
        "name": "Joseph Banks",
        "avatarUrl": ""
      },
      "threadId": 20,
      "createdAt": "2020-09-14T05:23:39.534603Z",
      "clapCount": 0,
      "threadSize": 0,
      "lastRevisionId": null,
      "articles": [],
      "name": "AVAIL",
      "description": "BIM Content Management Platform",
      "website": "https://getavail.com",
      "location": "Lexington, KY, USA",
      "twitterHandle": null,
      "crunchbaseId": "avail-3c85",
      "logoUrl": "https://aecworks-bucket-staging.s3.amazonaws.com/images/79a7cc38d48b40c087382196ca74ec19.png",
      "coverUrl": "",
      "hashtags": ["documentation", "datamanagement", "revitaddin"]
    }
  ]
}
